GIS
1
0.0
2
Other
I_Clothing
3
10 0
45 0 1
11 1
66
extractiv_Other_Other_zemanta
extractiv_Other_Other_opencalais
extractiv_Other_Other_saplo
extractiv_Other_Other_wikimeta
extractiv_Other_Other_lupedia
extractiv_Other_Other_yahooapi
extractiv_Other_Other_stanfordner
extractiv_Other_Other_illinoisner
dbpediaspotlight_Other_Other_extractiv
alchemyapi_Other_Other_extractiv
alchemyapi_Other_Other_stanfordner
opencalais_Other_Other_saplo
lupedia_Other_Other_stanfordner
opencalais_Other_Other_yahooapi
alchemyapi_Other_Other_saplo
wikimeta_Other_Other_yahooapi
lupedia_Other_Other_zemanta
illinoisner_Other_Other_wikimeta
dbpediaspotlight_Other_Other_stanfordner
dbpediaspotlight_Other_Other_yahooapi
illinoisner_Other_Other_saplo
saplo_Other_Other_wikimeta
lupedia_Other_Other_opencalais
alchemyapi_Other_Other_dbpediaspotlight
alchemyapi_Other_Other_lupedia
dbpediaspotlight_Other_Other_opencalais
illinoisner_Other_Other_lupedia
saplo_Other_Other_zemanta
illinoisner_Other_Other_opencalais
stanfordner_Other_Other_yahooapi
stanfordner_Other_Other_zemanta
lupedia_Other_Other_yahooapi
opencalais_Other_Other_stanfordner
dbpediaspotlight_Other_Other_wikimeta
dbpediaspotlight_Other_Other_saplo
alchemyapi_Other_Other_wikimeta
alchemyapi_Other_Other_opencalais
alchemyapi_Other_Other_yahooapi
yahooapi_Other_Other_zemanta
dbpediaspotlight_Other_Other_illinoisner
wikimeta_Other_Other_zemanta
alchemyapi_Other_Other_illinoisner
illinoisner_Other_Other_zemanta
lupedia_Other_Other_saplo
dbpediaspotlight_Other_Other_lupedia
saplo_Other_Other_yahooapi
dbpediaspotlight_Other_Other_zemanta
alchemyapi_Other_Other_zemanta
illinoisner_Other_Other_stanfordner
opencalais_Other_Other_zemanta
illinoisner_Other_Other_yahooapi
lupedia_Other_Other_wikimeta
saplo_Other_Other_stanfordner
opencalais_Other_Other_wikimeta
stanfordner_Other_Other_wikimeta
extractiv_I_Clothing_Other_saplo
extractiv_I_Clothing_Other_zemanta
extractiv_I_Clothing_Other_stanfordner
extractiv_I_Clothing_Other_wikimeta
extractiv_I_Clothing_Other_illinoisner
extractiv_I_Clothing_Other_lupedia
extractiv_I_Clothing_Other_yahooapi
dbpediaspotlight_Other_I_Clothing_extractiv
alchemyapi_Other_I_Clothing_extractiv
extractiv_I_Clothing_Other_opencalais
extractiv_I_Clothing
0.05194652651278723
0.05194652651278723
0.05194652651278723
0.05194652651278723
0.05194652651278723
0.05194652651278723
0.05194652651278723
0.05194652651278723
0.05194652651278723
0.05194652651278723
0.014950389378445549
-0.0808803133801756
0.014950389378445549
-0.0808803133801756
0.014950389378445549
-0.0808803133801756
0.014950389378445549
-0.0808803133801756
0.014950389378445549
-0.0808803133801756
0.014950389378445549
-0.0808803133801756
0.014950389378445549
-0.0808803133801756
0.014950389378445549
-0.0808803133801756
0.014950389378445549
-0.0808803133801756
0.014950389378445549
-0.0808803133801756
0.014950389378445549
-0.0808803133801756
0.014950389378445549
-0.0808803133801756
0.014950389378445549
-0.0808803133801756
0.014950389378445549
-0.0808803133801756
0.014950389378445549
-0.0808803133801756
0.014950389378445549
-0.0808803133801756
0.014950389378445549
-0.0808803133801756
0.014950389378445549
-0.0808803133801756
0.014950389378445549
-0.0808803133801756
0.014950389378445549
-0.0808803133801756
0.014950389378445549
-0.0808803133801756
0.014950389378445549
-0.0808803133801756
0.014950389378445549
-0.0808803133801756
0.014950389378445549
-0.0808803133801756
0.014950389378445549
-0.0808803133801756
0.014950389378445549
-0.0808803133801756
0.014950389378445549
-0.0808803133801756
0.014950389378445549
-0.0808803133801756
0.014950389378445549
-0.0808803133801756
0.014950389378445549
-0.0808803133801756
0.014950389378445549
-0.0808803133801756
0.014950389378445549
-0.0808803133801756
0.014950389378445549
-0.0808803133801756
0.014950389378445549
-0.0808803133801756
0.014950389378445549
-0.0808803133801756
0.014950389378445549
-0.0808803133801756
0.014950389378445549
-0.0808803133801756
0.014950389378445549
-0.0808803133801756
0.014950389378445549
-0.0808803133801756
0.014950389378445549
-0.0808803133801756
0.014950389378445549
-0.0808803133801756
0.014950389378445549
-0.0808803133801756
0.014950389378445549
-0.0808803133801756
0.014950389378445549
-0.0808803133801756
0.014950389378445549
-0.0808803133801756
0.6036988179200067
0.6036988179200067
0.6036988179200067
0.6036988179200067
0.6036988179200067
0.6036988179200067
0.6036988179200067
0.6036988179200067
0.6036988179200067
0.6036988179200067
0.6036988179200067
