GIS
1
0.0
2
Other
I_Computer
1
55 0 1
55
alchemyapi_Other_Other_stanfordner
extractiv_Other_Other_zemanta
opencalais_Other_Other_saplo
lupedia_Other_Other_stanfordner
opencalais_Other_Other_yahooapi
extractiv_Other_Other_opencalais
alchemyapi_Other_Other_saplo
wikimeta_Other_Other_yahooapi
lupedia_Other_Other_zemanta
extractiv_Other_Other_saplo
extractiv_Other_Other_wikimeta
illinoisner_Other_Other_wikimeta
dbpediaspotlight_Other_Other_stanfordner
dbpediaspotlight_Other_Other_yahooapi
illinoisner_Other_Other_saplo
saplo_Other_Other_wikimeta
lupedia_Other_Other_opencalais
alchemyapi_Other_Other_dbpediaspotlight
alchemyapi_Other_Other_lupedia
dbpediaspotlight_Other_Other_opencalais
illinoisner_Other_Other_lupedia
saplo_Other_Other_zemanta
illinoisner_Other_Other_opencalais
stanfordner_Other_Other_yahooapi
stanfordner_Other_Other_zemanta
lupedia_Other_Other_yahooapi
opencalais_Other_Other_stanfordner
dbpediaspotlight_Other_Other_wikimeta
dbpediaspotlight_Other_Other_saplo
alchemyapi_Other_Other_wikimeta
alchemyapi_Other_Other_opencalais
alchemyapi_Other_Other_yahooapi
yahooapi_Other_Other_zemanta
extractiv_Other_Other_lupedia
dbpediaspotlight_Other_Other_illinoisner
wikimeta_Other_Other_zemanta
extractiv_Other_Other_yahooapi
alchemyapi_Other_Other_illinoisner
illinoisner_Other_Other_zemanta
lupedia_Other_Other_saplo
dbpediaspotlight_Other_Other_lupedia
saplo_Other_Other_yahooapi
extractiv_Other_Other_stanfordner
dbpediaspotlight_Other_Other_zemanta
alchemyapi_Other_Other_zemanta
illinoisner_Other_Other_stanfordner
opencalais_Other_Other_zemanta
extractiv_Other_Other_illinoisner
illinoisner_Other_Other_yahooapi
lupedia_Other_Other_wikimeta
dbpediaspotlight_Other_Other_extractiv
saplo_Other_Other_stanfordner
alchemyapi_Other_Other_extractiv
opencalais_Other_Other_wikimeta
stanfordner_Other_Other_wikimeta
0.010869763650102202
-0.0309954198588805
0.010869763650102202
-0.0309954198588805
0.010869763650102202
-0.0309954198588805
0.010869763650102202
-0.0309954198588805
0.010869763650102202
-0.0309954198588805
0.010869763650102202
-0.0309954198588805
0.010869763650102202
-0.0309954198588805
0.010869763650102202
-0.0309954198588805
0.010869763650102202
-0.0309954198588805
0.010869763650102202
-0.0309954198588805
0.010869763650102202
-0.0309954198588805
0.010869763650102202
-0.0309954198588805
0.010869763650102202
-0.0309954198588805
0.010869763650102202
-0.0309954198588805
0.010869763650102202
-0.0309954198588805
0.010869763650102202
-0.0309954198588805
0.010869763650102202
-0.0309954198588805
0.010869763650102202
-0.0309954198588805
0.010869763650102202
-0.0309954198588805
0.010869763650102202
-0.0309954198588805
0.010869763650102202
-0.0309954198588805
0.010869763650102202
-0.0309954198588805
0.010869763650102202
-0.0309954198588805
0.010869763650102202
-0.0309954198588805
0.010869763650102202
-0.0309954198588805
0.010869763650102202
-0.0309954198588805
0.010869763650102202
-0.0309954198588805
0.010869763650102202
-0.0309954198588805
0.010869763650102202
-0.0309954198588805
0.010869763650102202
-0.0309954198588805
0.010869763650102202
-0.0309954198588805
0.010869763650102202
-0.0309954198588805
0.010869763650102202
-0.0309954198588805
0.010869763650102202
-0.0309954198588805
0.010869763650102202
-0.0309954198588805
0.010869763650102202
-0.0309954198588805
0.010869763650102202
-0.0309954198588805
0.010869763650102202
-0.0309954198588805
0.010869763650102202
-0.0309954198588805
0.010869763650102202
-0.0309954198588805
0.010869763650102202
-0.0309954198588805
0.010869763650102202
-0.0309954198588805
0.010869763650102202
-0.0309954198588805
0.010869763650102202
-0.0309954198588805
0.010869763650102202
-0.0309954198588805
0.010869763650102202
-0.0309954198588805
0.010869763650102202
-0.0309954198588805
0.010869763650102202
-0.0309954198588805
0.010869763650102202
-0.0309954198588805
0.010869763650102202
-0.0309954198588805
0.010869763650102202
-0.0309954198588805
0.010869763650102202
-0.0309954198588805
0.010869763650102202
-0.0309954198588805
0.010869763650102202
-0.0309954198588805
0.010869763650102202
-0.0309954198588805
