GIS
1
0.0
2
I_WrittenWork
Other
3
32 0
53 0 1
2 1
87
saplo_I_Organisation_I_Book_zemanta
saplo_I_Organisation_Other_stanfordner
stanfordner_Other_I_Book_zemanta
illinoisner_Other_I_Book_zemanta
illinoisner_I_Organisation_Other_stanfordner
dbpediaspotlight_Other_I_Organisation_illinoisner
illinoisner_I_Organisation_Other_yahooapi
yahooapi_Other_I_Book_zemanta
alchemyapi_Other_I_Organisation_saplo
illinoisner_I_Organisation_Other_zemanta
saplo_I_Organisation
opencalais_Other_I_Organisation_saplo
alchemyapi_Other_I_Organisation_illinoisner
lupedia_Other_I_Book_zemanta
illinoisner_Other_I_Organisation_saplo
dbpediaspotlight_Other_I_Book_zemanta
lupedia_Other_I_Organisation_saplo
illinoisner_I_Organisation_Other_saplo
illinoisner_I_Organisation_Other_opencalais
dbpediaspotlight_Other_I_Organisation_saplo
illinoisner_I_Organisation_Other_lupedia
opencalais_Other_I_Book_zemanta
illinoisner_I_Organisation
extractiv_Other_I_Organisation_illinoisner
saplo_I_Organisation_Other_wikimeta
extractiv_Other_I_Organisation_saplo
wikimeta_Other_I_Book_zemanta
extractiv_Other_I_Book_zemanta
zemanta_I_Book
alchemyapi_Other_I_Book_zemanta
illinoisner_I_Organisation_Other_wikimeta
saplo_I_Organisation_Other_yahooapi
alchemyapi_Other_Other_stanfordner
extractiv_Other_Other_zemanta
opencalais_Other_Other_saplo
lupedia_Other_Other_stanfordner
opencalais_Other_Other_yahooapi
extractiv_Other_Other_opencalais
alchemyapi_Other_Other_saplo
wikimeta_Other_Other_yahooapi
lupedia_Other_Other_zemanta
extractiv_Other_Other_saplo
illinoisner_Other_Other_wikimeta
extractiv_Other_Other_wikimeta
dbpediaspotlight_Other_Other_stanfordner
dbpediaspotlight_Other_Other_yahooapi
saplo_Other_Other_wikimeta
lupedia_Other_Other_opencalais
alchemyapi_Other_Other_dbpediaspotlight
alchemyapi_Other_Other_lupedia
dbpediaspotlight_Other_Other_opencalais
illinoisner_Other_Other_lupedia
saplo_Other_Other_zemanta
illinoisner_Other_Other_opencalais
stanfordner_Other_Other_yahooapi
stanfordner_Other_Other_zemanta
lupedia_Other_Other_yahooapi
opencalais_Other_Other_stanfordner
dbpediaspotlight_Other_Other_wikimeta
dbpediaspotlight_Other_Other_saplo
alchemyapi_Other_Other_wikimeta
alchemyapi_Other_Other_opencalais
alchemyapi_Other_Other_yahooapi
yahooapi_Other_Other_zemanta
extractiv_Other_Other_lupedia
dbpediaspotlight_Other_Other_illinoisner
wikimeta_Other_Other_zemanta
extractiv_Other_Other_yahooapi
alchemyapi_Other_Other_illinoisner
lupedia_Other_Other_saplo
dbpediaspotlight_Other_Other_lupedia
saplo_Other_Other_yahooapi
extractiv_Other_Other_stanfordner
dbpediaspotlight_Other_Other_zemanta
alchemyapi_Other_Other_zemanta
illinoisner_Other_Other_stanfordner
illinoisner_Other_Other_yahooapi
extractiv_Other_Other_illinoisner
opencalais_Other_Other_zemanta
lupedia_Other_Other_wikimeta
dbpediaspotlight_Other_Other_extractiv
saplo_Other_Other_stanfordner
alchemyapi_Other_Other_extractiv
opencalais_Other_Other_wikimeta
stanfordner_Other_Other_wikimeta
illinoisner_Other_Other_saplo
illinoisner_Other_Other_zemanta
0.15400507285001505
0.15400507285001505
0.15400507285001505
0.15400507285001505
0.2452506871789653
0.2452506871789653
0.2452506871789653
0.15400507285001505
0.15400507285001505
0.2452506871789653
0.15400507285001505
0.15400507285001505
0.2452506871789653
0.15400507285001505
0.15400507285001505
0.15400507285001505
0.15400507285001505
0.2452506871789653
0.2452506871789653
0.15400507285001505
0.2452506871789653
0.15400507285001505
0.2452506871789653
0.2452506871789653
0.15400507285001505
0.15400507285001505
0.15400507285001505
0.15400507285001505
0.15400507285001505
0.15400507285001505
0.2452506871789653
0.15400507285001505
0.03525368481778977
-0.06514002716915943
-0.06963016169771574
0.07524927138251411
-0.06963016169771574
0.07524927138251411
0.03525368481778977
-0.06514002716915943
0.03525368481778977
-0.06514002716915943
0.03525368481778977
-0.06514002716915943
-0.06963016169771574
0.07524927138251411
0.03525368481778977
-0.06514002716915943
-0.06963016169771574
0.07524927138251411
-0.06963016169771574
0.07524927138251411
-0.1422676599709512
0.16151673722463555
0.03525368481778977
-0.06514002716915943
0.03525368481778977
-0.06514002716915943
0.03525368481778977
-0.06514002716915943
-0.06963016169771574
0.07524927138251411
0.03525368481778977
-0.06514002716915943
0.03525368481778977
-0.06514002716915943
0.03525368481778977
-0.06514002716915943
0.03525368481778977
-0.06514002716915943
-0.1422676599709512
0.16151673722463555
-0.06963016169771574
0.07524927138251411
-0.1422676599709512
0.16151673722463555
0.03525368481778977
-0.06514002716915943
-0.06963016169771574
0.07524927138251411
0.03525368481778977
-0.06514002716915943
0.03525368481778977
-0.06514002716915943
0.03525368481778977
-0.06514002716915943
-0.06963016169771574
0.07524927138251411
0.03525368481778977
-0.06514002716915943
0.03525368481778977
-0.06514002716915943
0.03525368481778977
-0.06514002716915943
-0.06963016169771574
0.07524927138251411
0.03525368481778977
-0.06514002716915943
-0.1422676599709512
0.16151673722463555
-0.06963016169771574
0.07524927138251411
0.03525368481778977
-0.06514002716915943
-0.1422676599709512
0.16151673722463555
-0.06963016169771574
0.07524927138251411
0.03525368481778977
-0.06514002716915943
-0.06963016169771574
0.07524927138251411
0.03525368481778977
-0.06514002716915943
-0.06963016169771574
0.07524927138251411
-0.06963016169771574
0.07524927138251411
-0.1422676599709512
0.16151673722463555
-0.1422676599709512
0.16151673722463555
-0.1422676599709512
0.16151673722463555
-0.06963016169771574
0.07524927138251411
0.03525368481778977
-0.06514002716915943
0.03525368481778977
-0.06514002716915943
-0.06963016169771574
0.07524927138251411
0.03525368481778977
-0.06514002716915943
0.03525368481778977
-0.06514002716915943
0.03525368481778977
-0.06514002716915943
0.34339110866239997
0.34339110866239997
