GIS
1
0.0
2
I_Duration__I_Century
Other
3
21 0
36 0 1
19 1
76
opencalais_Other_I_Time_wikimeta
saplo_Other_I_Time_wikimeta
extractiv_I_Century_Other_illinoisner
extractiv_I_Century_Other_zemanta
alchemyapi_Other_I_Century_extractiv
wikimeta_I_Time_Other_zemanta
illinoisner_Other_I_Time_wikimeta
extractiv_I_Century_Other_lupedia
extractiv_I_Century_Other_saplo
extractiv_I_Century_Other_stanfordner
extractiv_I_Century_Other_opencalais
extractiv_I_Century
dbpediaspotlight_Other_I_Time_wikimeta
wikimeta_I_Time_Other_yahooapi
extractiv_I_Century_I_Time_wikimeta
extractiv_I_Century_Other_yahooapi
lupedia_Other_I_Time_wikimeta
stanfordner_Other_I_Time_wikimeta
dbpediaspotlight_Other_I_Century_extractiv
wikimeta_I_Time
alchemyapi_Other_I_Time_wikimeta
alchemyapi_Other_Other_stanfordner
opencalais_Other_Other_saplo
lupedia_Other_Other_stanfordner
opencalais_Other_Other_yahooapi
alchemyapi_Other_Other_saplo
lupedia_Other_Other_zemanta
dbpediaspotlight_Other_Other_stanfordner
dbpediaspotlight_Other_Other_yahooapi
illinoisner_Other_Other_saplo
lupedia_Other_Other_opencalais
alchemyapi_Other_Other_dbpediaspotlight
alchemyapi_Other_Other_lupedia
dbpediaspotlight_Other_Other_opencalais
illinoisner_Other_Other_lupedia
saplo_Other_Other_zemanta
illinoisner_Other_Other_opencalais
stanfordner_Other_Other_yahooapi
lupedia_Other_Other_yahooapi
stanfordner_Other_Other_zemanta
opencalais_Other_Other_stanfordner
dbpediaspotlight_Other_Other_saplo
alchemyapi_Other_Other_opencalais
alchemyapi_Other_Other_yahooapi
yahooapi_Other_Other_zemanta
dbpediaspotlight_Other_Other_illinoisner
alchemyapi_Other_Other_illinoisner
illinoisner_Other_Other_zemanta
lupedia_Other_Other_saplo
dbpediaspotlight_Other_Other_lupedia
saplo_Other_Other_yahooapi
dbpediaspotlight_Other_Other_zemanta
alchemyapi_Other_Other_zemanta
illinoisner_Other_Other_stanfordner
opencalais_Other_Other_zemanta
illinoisner_Other_Other_yahooapi
saplo_Other_Other_stanfordner
extractiv_Other_Other_zemanta
extractiv_Other_Other_opencalais
wikimeta_Other_Other_yahooapi
extractiv_Other_Other_saplo
illinoisner_Other_Other_wikimeta
extractiv_Other_Other_wikimeta
saplo_Other_Other_wikimeta
dbpediaspotlight_Other_Other_wikimeta
alchemyapi_Other_Other_wikimeta
extractiv_Other_Other_lupedia
wikimeta_Other_Other_zemanta
extractiv_Other_Other_yahooapi
extractiv_Other_Other_stanfordner
extractiv_Other_Other_illinoisner
lupedia_Other_Other_wikimeta
dbpediaspotlight_Other_Other_extractiv
alchemyapi_Other_Other_extractiv
opencalais_Other_Other_wikimeta
stanfordner_Other_Other_wikimeta
0.17648483365375195
0.17648483365375195
0.17648483365375195
0.17648483365375195
0.17648483365375195
0.17648483365375195
0.17648483365375195
0.17648483365375195
0.17648483365375195
0.17648483365375195
0.17648483365375195
0.17648483365375195
0.17648483365375195
0.17648483365375195
0.17648483365375195
0.17648483365375195
0.17648483365375195
0.17648483365375195
0.17648483365375195
0.17648483365375195
0.17648483365375195
-0.0020282425831206733
0.0020331973698106353
-0.0020282425831206733
0.0020331973698106353
-0.0020282425831206733
0.0020331973698106353
-0.0020282425831206733
0.0020331973698106353
-0.0020282425831206733
0.0020331973698106353
-0.0020282425831206733
0.0020331973698106353
-0.0020282425831206733
0.0020331973698106353
-0.0020282425831206733
0.0020331973698106353
-0.0020282425831206733
0.0020331973698106353
-0.0020282425831206733
0.0020331973698106353
-0.0020282425831206733
0.0020331973698106353
-0.0020282425831206733
0.0020331973698106353
-0.0020282425831206733
0.0020331973698106353
-0.0020282425831206733
0.0020331973698106353
-0.0020282425831206733
0.0020331973698106353
-0.0020282425831206733
0.0020331973698106353
-0.0020282425831206733
0.0020331973698106353
-0.0020282425831206733
0.0020331973698106353
-0.0020282425831206733
0.0020331973698106353
-0.0020282425831206733
0.0020331973698106353
-0.0020282425831206733
0.0020331973698106353
-0.0020282425831206733
0.0020331973698106353
-0.0020282425831206733
0.0020331973698106353
-0.0020282425831206733
0.0020331973698106353
-0.0020282425831206733
0.0020331973698106353
-0.0020282425831206733
0.0020331973698106353
-0.0020282425831206733
0.0020331973698106353
-0.0020282425831206733
0.0020331973698106353
-0.0020282425831206733
0.0020331973698106353
-0.0020282425831206733
0.0020331973698106353
-0.0020282425831206733
0.0020331973698106353
-0.0020282425831206733
0.0020331973698106353
-0.0020282425831206733
0.0020331973698106353
-0.0020282425831206733
0.0020331973698106353
-0.0020282425831206733
0.0020331973698106353
-0.0020282425831206733
0.0020331973698106353
0.17900050056340583
0.17900050056340583
0.17900050056340583
0.17900050056340583
0.17900050056340583
0.17900050056340583
0.17900050056340583
0.17900050056340583
0.17900050056340583
0.17900050056340583
0.17900050056340583
0.17900050056340583
0.17900050056340583
0.17900050056340583
0.17900050056340583
0.17900050056340583
0.17900050056340583
0.17900050056340583
0.17900050056340583
