GIS
1
0.0
2
Other
I_Restaurant
2
55 0 1
21 1
76
alchemyapi_Other_Other_stanfordner
extractiv_Other_Other_zemanta
opencalais_Other_Other_saplo
lupedia_Other_Other_stanfordner
opencalais_Other_Other_yahooapi
extractiv_Other_Other_opencalais
alchemyapi_Other_Other_saplo
wikimeta_Other_Other_yahooapi
lupedia_Other_Other_zemanta
extractiv_Other_Other_saplo
extractiv_Other_Other_wikimeta
illinoisner_Other_Other_wikimeta
dbpediaspotlight_Other_Other_stanfordner
dbpediaspotlight_Other_Other_yahooapi
illinoisner_Other_Other_saplo
saplo_Other_Other_wikimeta
lupedia_Other_Other_opencalais
alchemyapi_Other_Other_dbpediaspotlight
alchemyapi_Other_Other_lupedia
dbpediaspotlight_Other_Other_opencalais
illinoisner_Other_Other_lupedia
saplo_Other_Other_zemanta
illinoisner_Other_Other_opencalais
stanfordner_Other_Other_yahooapi
stanfordner_Other_Other_zemanta
lupedia_Other_Other_yahooapi
opencalais_Other_Other_stanfordner
dbpediaspotlight_Other_Other_wikimeta
dbpediaspotlight_Other_Other_saplo
alchemyapi_Other_Other_wikimeta
alchemyapi_Other_Other_opencalais
alchemyapi_Other_Other_yahooapi
yahooapi_Other_Other_zemanta
extractiv_Other_Other_lupedia
dbpediaspotlight_Other_Other_illinoisner
wikimeta_Other_Other_zemanta
extractiv_Other_Other_yahooapi
alchemyapi_Other_Other_illinoisner
illinoisner_Other_Other_zemanta
lupedia_Other_Other_saplo
dbpediaspotlight_Other_Other_lupedia
saplo_Other_Other_yahooapi
extractiv_Other_Other_stanfordner
dbpediaspotlight_Other_Other_zemanta
alchemyapi_Other_Other_zemanta
illinoisner_Other_Other_stanfordner
opencalais_Other_Other_zemanta
extractiv_Other_Other_illinoisner
illinoisner_Other_Other_yahooapi
lupedia_Other_Other_wikimeta
dbpediaspotlight_Other_Other_extractiv
saplo_Other_Other_stanfordner
alchemyapi_Other_Other_extractiv
opencalais_Other_Other_wikimeta
stanfordner_Other_Other_wikimeta
dbpediaspotlight_Other_I_Building_extractiv
illinoisner_Other_I_Organisation_stanfordner
dbpediaspotlight_Other_I_Organisation_stanfordner
stanfordner_I_Organisation_Other_zemanta
saplo_Other_I_Organisation_stanfordner
stanfordner_I_Organisation
extractiv_I_Building_I_Organisation_stanfordner
extractiv_I_Building_Other_lupedia
stanfordner_I_Organisation_Other_yahooapi
extractiv_I_Building_Other_opencalais
extractiv_I_Building_Other_zemanta
stanfordner_I_Organisation_Other_wikimeta
extractiv_I_Building_Other_saplo
extractiv_I_Building
alchemyapi_Other_I_Organisation_stanfordner
lupedia_Other_I_Organisation_stanfordner
opencalais_Other_I_Organisation_stanfordner
extractiv_I_Building_Other_yahooapi
alchemyapi_Other_I_Building_extractiv
extractiv_I_Building_Other_wikimeta
extractiv_I_Building_Other_illinoisner
0.026245351611283985
-0.04754582932104939
0.026245351611283985
-0.04754582932104939
-0.008285209257650505
0.011653034697918058
0.026245351611283985
-0.04754582932104939
-0.008285209257650505
0.011653034697918058
0.026245351611283985
-0.04754582932104939
-0.008285209257650505
0.011653034697918058
-0.008285209257650505
0.011653034697918058
-0.008285209257650505
0.011653034697918058
0.026245351611283985
-0.04754582932104939
0.026245351611283985
-0.04754582932104939
-0.008285209257650505
0.011653034697918058
0.026245351611283985
-0.04754582932104939
-0.008285209257650505
0.011653034697918058
-0.008285209257650505
0.011653034697918058
-0.008285209257650505
0.011653034697918058
-0.008285209257650505
0.011653034697918058
-0.008285209257650505
0.011653034697918058
-0.008285209257650505
0.011653034697918058
-0.008285209257650505
0.011653034697918058
-0.008285209257650505
0.011653034697918058
-0.008285209257650505
0.011653034697918058
-0.008285209257650505
0.011653034697918058
0.026245351611283985
-0.04754582932104939
0.026245351611283985
-0.04754582932104939
-0.008285209257650505
0.011653034697918058
0.026245351611283985
-0.04754582932104939
-0.008285209257650505
0.011653034697918058
-0.008285209257650505
0.011653034697918058
-0.008285209257650505
0.011653034697918058
-0.008285209257650505
0.011653034697918058
-0.008285209257650505
0.011653034697918058
-0.008285209257650505
0.011653034697918058
0.026245351611283985
-0.04754582932104939
-0.008285209257650505
0.011653034697918058
-0.008285209257650505
0.011653034697918058
0.026245351611283985
-0.04754582932104939
-0.008285209257650505
0.011653034697918058
-0.008285209257650505
0.011653034697918058
-0.008285209257650505
0.011653034697918058
-0.008285209257650505
0.011653034697918058
-0.008285209257650505
0.011653034697918058
0.026245351611283985
-0.04754582932104939
-0.008285209257650505
0.011653034697918058
-0.008285209257650505
0.011653034697918058
0.026245351611283985
-0.04754582932104939
-0.008285209257650505
0.011653034697918058
0.026245351611283985
-0.04754582932104939
-0.008285209257650505
0.011653034697918058
-0.008285209257650505
0.011653034697918058
0.026245351611283985
-0.04754582932104939
0.026245351611283985
-0.04754582932104939
0.026245351611283985
-0.04754582932104939
-0.008285209257650505
0.011653034697918058
0.026245351611283985
-0.04754582932104939
0.15194749925861564
0.15194749925861564
0.15194749925861564
0.15194749925861564
0.15194749925861564
0.15194749925861564
0.15194749925861564
0.15194749925861564
0.15194749925861564
0.15194749925861564
0.15194749925861564
0.15194749925861564
0.15194749925861564
0.15194749925861564
0.15194749925861564
0.15194749925861564
0.15194749925861564
0.15194749925861564
0.15194749925861564
0.15194749925861564
0.15194749925861564
