GIS
1
0.0
2
I_Technology__I_Product
Other
3
33 0
44 0 1
11 1
88
dbpediaspotlight_B_MusicGenre_Other_lupedia
opencalais_I_SubTechnology_Other_stanfordner
alchemyapi_Other_I_SubTechnology_opencalais
opencalais_I_SubTechnology
dbpediaspotlight_B_MusicGenre_Other_stanfordner
dbpediaspotlight_B_MusicGenre_Other_illinoisner
dbpediaspotlight_B_MusicGenre_Other_wikimeta
opencalais_I_SubTechnology_Other_wikimeta
alchemyapi_Other_B_MusicGenre_dbpediaspotlight
dbpediaspotlight_B_MusicGenre_Other_zemanta
saplo_I_Person
saplo_I_Person_Other_stanfordner
opencalais_I_SubTechnology_Other_yahooapi
saplo_I_Person_Other_zemanta
dbpediaspotlight_B_MusicGenre_Other_saplo
opencalais_I_SubTechnology_I_Person_saplo
illinoisner_Other_I_Person_saplo
alchemyapi_Other_I_Person_saplo
illinoisner_Other_I_SubTechnology_opencalais
lupedia_Other_I_SubTechnology_opencalais
saplo_I_Person_Other_yahooapi
saplo_I_Person_Other_wikimeta
extractiv_Other_I_Person_saplo
dbpediaspotlight_B_MusicGenre
dbpediaspotlight_B_MusicGenre_Other_yahooapi
dbpediaspotlight_Other_I_Person_saplo
dbpediaspotlight_B_MusicGenre_Other_extractiv
opencalais_I_SubTechnology_Other_saplo
dbpediaspotlight_Other_I_SubTechnology_opencalais
lupedia_Other_I_Person_saplo
dbpediaspotlight_B_MusicGenre_I_SubTechnology_opencalais
extractiv_Other_I_SubTechnology_opencalais
opencalais_I_SubTechnology_Other_zemanta
alchemyapi_Other_Other_stanfordner
extractiv_Other_Other_zemanta
lupedia_Other_Other_stanfordner
alchemyapi_Other_Other_saplo
wikimeta_Other_Other_yahooapi
lupedia_Other_Other_zemanta
extractiv_Other_Other_saplo
illinoisner_Other_Other_wikimeta
extractiv_Other_Other_wikimeta
dbpediaspotlight_Other_Other_stanfordner
dbpediaspotlight_Other_Other_yahooapi
illinoisner_Other_Other_saplo
saplo_Other_Other_wikimeta
alchemyapi_Other_Other_dbpediaspotlight
alchemyapi_Other_Other_lupedia
saplo_Other_Other_zemanta
illinoisner_Other_Other_lupedia
stanfordner_Other_Other_yahooapi
lupedia_Other_Other_yahooapi
stanfordner_Other_Other_zemanta
dbpediaspotlight_Other_Other_wikimeta
alchemyapi_Other_Other_wikimeta
alchemyapi_Other_Other_yahooapi
yahooapi_Other_Other_zemanta
extractiv_Other_Other_lupedia
dbpediaspotlight_Other_Other_illinoisner
wikimeta_Other_Other_zemanta
extractiv_Other_Other_yahooapi
alchemyapi_Other_Other_illinoisner
lupedia_Other_Other_saplo
illinoisner_Other_Other_zemanta
dbpediaspotlight_Other_Other_lupedia
saplo_Other_Other_yahooapi
extractiv_Other_Other_stanfordner
dbpediaspotlight_Other_Other_zemanta
alchemyapi_Other_Other_zemanta
illinoisner_Other_Other_stanfordner
illinoisner_Other_Other_yahooapi
extractiv_Other_Other_illinoisner
lupedia_Other_Other_wikimeta
dbpediaspotlight_Other_Other_extractiv
saplo_Other_Other_stanfordner
alchemyapi_Other_Other_extractiv
stanfordner_Other_Other_wikimeta
opencalais_Other_Other_saplo
opencalais_Other_Other_yahooapi
extractiv_Other_Other_opencalais
lupedia_Other_Other_opencalais
dbpediaspotlight_Other_Other_opencalais
illinoisner_Other_Other_opencalais
opencalais_Other_Other_stanfordner
dbpediaspotlight_Other_Other_saplo
alchemyapi_Other_Other_opencalais
opencalais_Other_Other_zemanta
opencalais_Other_Other_wikimeta
0.1437015503804578
0.1437015503804577
0.1437015503804577
0.1437015503804577
0.1437015503804578
0.1437015503804578
0.1437015503804578
0.1437015503804577
0.1437015503804578
0.1437015503804578
0.1437015503804578
0.1437015503804578
0.1437015503804577
0.1437015503804578
0.1437015503804578
0.1437015503804578
0.1437015503804578
0.1437015503804578
0.1437015503804577
0.1437015503804577
0.1437015503804578
0.1437015503804578
0.1437015503804578
0.1437015503804578
0.1437015503804578
0.1437015503804578
0.1437015503804578
0.1437015503804578
0.1437015503804578
0.1437015503804578
0.1437015503804578
0.1437015503804577
0.1437015503804577
0.02586424717217099
-0.04736166404676149
0.02586424717217099
-0.04736166404676149
0.02586424717217099
-0.04736166404676149
-0.07784472708991748
0.0848779210572202
0.02586424717217099
-0.04736166404676149
0.02586424717217099
-0.04736166404676149
-0.07784472708991748
0.0848779210572202
0.02586424717217099
-0.04736166404676149
0.02586424717217099
-0.04736166404676149
-0.07784472708991745
0.08487792105722021
-0.07784472708991745
0.08487792105722021
-0.07784472708991748
0.0848779210572202
-0.07784472708991748
0.0848779210572202
-0.07784472708991745
0.08487792105722021
0.02586424717217099
-0.04736166404676149
-0.07784472708991748
0.0848779210572202
0.02586424717217099
-0.04736166404676149
0.02586424717217099
-0.04736166404676149
0.02586424717217099
-0.04736166404676149
0.02586424717217099
-0.04736166404676149
-0.07784472708991745
0.08487792105722021
0.02586424717217099
-0.04736166404676149
0.02586424717217099
-0.04736166404676149
0.02586424717217099
-0.04736166404676149
0.02586424717217099
-0.04736166404676149
-0.07784472708991745
0.08487792105722021
0.02586424717217099
-0.04736166404676149
0.02586424717217099
-0.04736166404676149
0.02586424717217099
-0.04736166404676149
-0.07784472708991748
0.0848779210572202
0.02586424717217099
-0.04736166404676149
-0.07784472708991745
0.08487792105722021
-0.07784472708991748
0.0848779210572202
0.02586424717217099
-0.04736166404676149
-0.07784472708991745
0.08487792105722021
0.02586424717217099
-0.04736166404676149
0.02586424717217099
-0.04736166404676149
0.02586424717217099
-0.04736166404676149
0.02586424717217099
-0.04736166404676149
0.02586424717217099
-0.04736166404676149
-0.07784472708991745
0.08487792105722021
-0.07784472708991748
0.0848779210572202
0.02586424717217099
-0.04736166404676149
0.02586424717217099
-0.04736166404676149
0.2446749344003325
0.2446749344003325
0.2446749344003325
0.2446749344003325
0.2446749344003325
0.2446749344003325
0.2446749344003325
0.2446749344003325
0.2446749344003325
0.2446749344003325
0.2446749344003325
